{
   "order":{
      "customer":{
         "firstName":"Joe",
         "lastName":"Bloggs",
         "emailAddress":"joebloggs@powa.com",
         "phone":"07890123456",
         "shippingAddress":{
            "friendlyName":"Default Address",
            "firstName":"Joe",
            "lastName":"Bloggs",
            "line1":"POWA Technologies",
            "line2":"110 Bishopsgate",
            "city":"London",
            "county":"",
            "state":"UK",
            "postCode":"10036",
            "country":{
               "name":"United States",
               "alpha2Code":"US"
            }
         }
      },
      "orderLineItems":[
         {
            "product":{
               "name":"T-Shirt 1",
               "code":"TSHIRT1",
               "productVariants":[
                  {
                     "code":"TSHIRT1",
                     "numberInStock":8,
                     "originalPrice":{
                        "amount":17.99,
                        "currency":"GBP"
                     },
                     "finalPrice":{
                        "amount":15.99,
                        "currency":"GBP"
                     },
                     "options":{
                        "Color":"Blue",
                        "Size":"Small"
                     }
                  }
               ]
            },
            "quantity":1
         },
         {
            "product":{
               "name":"T-Shirt 2",
               "code":"TSHIRT2",
               "productVariants":[
                  {
                     "code":"TSHIRT2",
                     "numberInStock":10,
                     "originalPrice":{
                        "amount":19.99,
                        "currency":"GBP"
                     },
                     "finalPrice":{
                        "amount":18.99,
                        "currency":"GBP"
                     },
                     "options":{
                        "Color":"Blue",
                        "Size":"Small"
                     }
                  }
               ]
            },
            "quantity":10
         },
         {
            "product":{
               "name":"T-Shirt 3",
               "code":"TSHIRT3",
               "productVariants":[
                  {
                     "code":"TSHIRT3",
                     "numberInStock":10,
                     "originalPrice":{
                        "amount":20.99,
                        "currency":"GBP"
                     },
                     "finalPrice":{
                        "amount":19.99,
                        "currency":"GBP"
                     },
                     "options":{
                        "Color":"Blue",
                        "Size":"Small"
                     }
                  }
               ]
            },
            "quantity":15
         }
      ]
   }
}