{
   "orders":[
      {
         "customer":{
            "firstName":"Joe",
            "lastName":"Bloggs",
            "emailAddress":"joebloggs@powa.com",
            "phone":"07890123456",
            "shippingAddress":{
               "friendlyName":"Default Address",
               "firstName":"Joe",
               "lastName":"Bloggs",
               "line1":"1 Bryant Park",
               "line2":"Suite 4444",
               "city":"New York",
               "county":"",
               "state":"NY",
               "postCode":"10036",
               "country":{
                  "name":"United States",
                  "alpha2Code":"US"
               }
            }
         },
         "orderCostSummary":{
            "subTotal":{
               "amount": 91.98,
               "currency":"USD"
            },
            "shippingCost":{
               "amount":3.00,
               "currency":"USD"
            },
            "tax":{
               "amount":2.50,
               "currency":"USD"
            },
            "total":{
               "amount":97.48,
               "currency":"USD"
            }
         },
         "orderLineItems":[
            {
               "product":{
                  "name":"T-Shirt 1",
                  "code":"TSHIRT1",
                  "productVariants":[
                     {
                        "code":"TSHIRT1",
                        "numberInStock":15,
                        "originalPrice":{
                           "amount":17.99,
                           "currency":"GBP"
                        },
                        "finalPrice":{
                           "amount":15.99,
                           "currency":"GBP"
                        },
                        "options":{
                           "Color":"Blue",
                           "Size":"Small"
                        }
                     }
                  ]
               },
               "quantity":18
            },
            {
               "product":{
                  "name":"T-Shirt 2",
                  "code":"TSHIRT2",
                  "productVariants":[
                     {
                        "code":"TSHIRT2",
                        "numberInStock":10,
                        "originalPrice":{
                           "amount":19.99,
                           "currency":"GBP"
                        },
                        "finalPrice":{
                           "amount":18.99,
                           "currency":"GBP"
                        },
                        "options":{
                           "Color":"Blue",
                           "Size":"Small"
                        }
                     }
                  ]
               },
               "quantity":20
            }
         ],
         "device":{
            "deviceID":"990000862471854",
            "ipAddress":"127.0.0.1",
            "location":{
               "latitude":234.0,
               "longitude":3456.0
            }
         },
         "paymentCard":{
            "friendlyName":"My Visa",
            "number":"4444333322221111",
            "cvv": "123",
            "type":"AMEX",
            "cardHolderName":"Joe Bloggs",
            "validFrom": "2012/10",
            "expirationDate":"2020/08",
            "issueNumber": "01",
            "billingAddress":{
               "friendlyName":"Default Address",
               "firstName":"Joe",
               "lastName":"Bloggs",
               "line1":"1 Bryant Park",
               "line2":"Suite 4444",
               "city":"New York",
               "county":"",
               "state":"NY",
               "postCode":"10036",
               "country":{
                  "name":"United States",
                  "alpha2Code":"US"
               }
            }
         }
      }
   ]
}