{
   "orderCostSummary":{
      "subTotal":{
         "amount":9.99,
         "currency":"GBP"
      },
      "shippingCost":{
         "amount":2.95,
         "currency":"GBP"
      },
      "tax":{
         "amount":0,
         "currency":"GBP"
      },
      "total":{
         "amount":12.94,
         "currency":"GBP"
      }
   }
}