{
   "products":[
      {
         "name":"T-Shirt",
         "type":"PRODUCT",
         "availableCurrencies":[
            "USD",
            "GBP",
            "CAD",
            "EUR"
         ],
         "code":"TSHIRT",
         "description":"T-Shirt",
         "currency":"USD",
         "language":"en-US",
         "productImages":[
            {
               "name":"Front",
               "url":"http://url.to/image_1.jpg"
            }
         ],
         "productOptions":{
            "Color":{
               "id":"111",
               "values":[
                  "Red",
                  "Blue",
                  "Green"
               ]
            },
            "Size":{
               "id":"222",
               "values":[
                  "Small",
                  "Medium",
                  "Large",
                  "XLarge"
               ]
            }
         },
         "productVariants":[
            {
               "code":"TSHIRT1",
               "numberInStock":0,
               "originalPrice":{
                  "amount":17.99,
                  "currency":"GBP"
               },
               "finalPrice":{
                  "amount":15.99,
                  "currency":"GBP"
               },
               "options":{
                  "Color":"Blue",
                  "Size":"Small"
               }
            }
         ],
         "productAttributes":{
            "Material":"100% Cotton",
            "Neck Style":"V-Neck"
         },
         "customFields":{
            "name":"Gift Message"
         }
      }
   ]
}